Diabetes Health Indicators – Exploratory Data Analysis
…
diabetes

# A tibble: 253,680 × 24
   Diabetes_012 HighBP HighChol CholCheck   BMI Smoker Stroke
   <fct>         <dbl>    <dbl>     <dbl> <dbl>  <dbl>  <dbl>
 1 No_diabetes       1        1         1    40      1      0
 2 No_diabetes       0        0         0    25      1      0
 3 No_diabetes       1        1         1    28      0      0
 4 No_diabetes       1        0         1    27      0      0
 5 No_diabetes       1        1         1    24      0      0
 6 No_diabetes       1        1         1    25      1      0
 7 No_diabetes       1        0         1    30      1      0
 8 No_diabetes       1        1         1    25      1      0
 9 Diabetes          1        1         1    30      1      0
10 No_diabetes       0        0         1    24      0      0
# ℹ 253,670 more rows
# ℹ 17 more variables: HeartDiseaseorAttack <dbl>, PhysActivity <dbl>,
#   Fruits <dbl>, Veggies <dbl>, HvyAlcoholConsump <dbl>, AnyHealthcare <dbl>,
#   NoDocbcCost <dbl>, GenHlth <ord>, MentHlth <dbl>, PhysHlth <dbl>,
#   DiffWalk <dbl>, Sex <fct>, Age <ord>, Education <dbl>, Income <dbl>,
#   Diabetes_num <dbl>, Age_num <dbl>
…
