Diabetes Health Indicators – Modeling
…
Tuning Grid

We create a regular grid of hyperparameters to explore a range of tree sizes and complexities.

tree_grid <- grid_regular(
  cost_complexity(range = c(-4, -1)),
  tree_depth(range      = c(3, 10)),
  min_n(range           = c(10, 50)),
  levels = 3
)

print(tree_grid)

# A tibble: 27 × 3
   cost_complexity tree_depth min_n
             <dbl>      <int> <int>
 1         0.0001           3    10
 2         0.00316          3    10
 3         0.1              3    10
 4         0.0001           6    10
 5         0.00316          6    10
 6         0.1              6    10
 7         0.0001          10    10
 8         0.00316         10    10
 9         0.1             10    10
10         0.0001           3    30
# ℹ 17 more rows
…
